<mxfile host="app.diagrams.net" modified="2021-12-02T03:54:08.103Z" agent="5.0 (Windows)" etag="DK2F2F52FZsMur0rhZlZ" version="15.7.3" type="gitlab">
  <diagram name="Page-1" id="c9db0220-8083-56f3-ca83-edcdcd058819">
    <mxGraphModel dx="2583" dy="1637" grid="1" gridSize="10" guides="1" tooltips="1" connect="1" arrows="1" fold="1" page="1" pageScale="1.5" pageWidth="826" pageHeight="1169" background="none" math="0" shadow="0">
      <root>
        <mxCell id="0" style=";html=1;" />
        <mxCell id="1" style=";html=1;" parent="0" />
        <mxCell id="E8j2llxcRA6-mhXSuqtw-1" value="" style="strokeWidth=1;shadow=0;dashed=0;align=center;html=1;shape=mxgraph.mockup.containers.browserWindow;rSize=0;strokeColor2=#008cff;strokeColor3=#c4c4c4;mainText=,;recursiveResize=0;" vertex="1" parent="1">
          <mxGeometry x="130" y="80" width="1040" height="970" as="geometry" />
        </mxCell>
        <mxCell id="E8j2llxcRA6-mhXSuqtw-2" value="Page 1" style="strokeWidth=1;shadow=0;dashed=0;align=center;html=1;shape=mxgraph.mockup.containers.anchor;fontSize=17;fontColor=#666666;align=left;fillColor=#55F150;" vertex="1" parent="E8j2llxcRA6-mhXSuqtw-1">
          <mxGeometry x="60" y="12" width="110" height="26" as="geometry" />
        </mxCell>
        <mxCell id="E8j2llxcRA6-mhXSuqtw-3" value="https://www.tudrogajaja.com" style="strokeWidth=1;shadow=0;dashed=0;align=center;html=1;shape=mxgraph.mockup.containers.anchor;rSize=0;fontSize=17;fontColor=#666666;align=left;fillColor=#55F150;" vertex="1" parent="E8j2llxcRA6-mhXSuqtw-1">
          <mxGeometry x="130" y="60" width="250" height="26" as="geometry" />
        </mxCell>
        <mxCell id="E8j2llxcRA6-mhXSuqtw-57" value="" style="html=1;shadow=0;dashed=0;shape=mxgraph.bootstrap.rrect;rSize=5;strokeColor=#DFDFDF;html=1;whiteSpace=wrap;fillColor=#ffffff;fontColor=#A63726;" vertex="1" parent="E8j2llxcRA6-mhXSuqtw-1">
          <mxGeometry y="170" width="1030" height="370" as="geometry" />
        </mxCell>
        <mxCell id="E8j2llxcRA6-mhXSuqtw-58" value="&lt;div&gt;&lt;b&gt;&lt;font style=&quot;font-size: 20px&quot;&gt;&lt;br&gt;&lt;/font&gt;&lt;/b&gt;&lt;/div&gt;&lt;div&gt;&lt;b&gt;&lt;font style=&quot;font-size: 20px&quot;&gt;&lt;br&gt;&lt;/font&gt;&lt;/b&gt;&lt;/div&gt;&lt;div&gt;&lt;b&gt;&lt;font style=&quot;font-size: 20px&quot;&gt;{{nombre artículo}}&lt;/font&gt;&lt;/b&gt;&lt;/div&gt;&lt;br&gt;{{Descripción del artículo}}&lt;br&gt;&lt;br&gt;&lt;br&gt;&lt;br&gt;{{precio}}" style="html=1;shadow=0;dashed=0;shape=mxgraph.bootstrap.leftButton;rSize=5;strokeColor=#DFDFDF;html=1;whiteSpace=wrap;fillColor=#ffffff;fontColor=#000000;verticalAlign=top;align=left;spacing=20;spacingBottom=0;fontSize=14;spacingTop=160;" vertex="1" parent="E8j2llxcRA6-mhXSuqtw-57">
          <mxGeometry width="260" height="370" relative="1" as="geometry" />
        </mxCell>
        <mxCell id="E8j2llxcRA6-mhXSuqtw-59" value="{{imagen de artículo}}" style="html=1;shadow=0;dashed=0;shape=mxgraph.basic.corner_round_rect;dx=2;perimeter=none;whiteSpace=wrap;fillColor=#868E96;strokeColor=#DFDFDF;fontColor=#DEE2E6;resizeWidth=1;fontSize=18;" vertex="1" parent="E8j2llxcRA6-mhXSuqtw-58">
          <mxGeometry width="260" height="230" relative="1" as="geometry" />
        </mxCell>
        <mxCell id="E8j2llxcRA6-mhXSuqtw-70" value="Agregar a carrito" style="html=1;shadow=0;dashed=0;shape=mxgraph.bootstrap.rrect;rSize=5;strokeColor=none;strokeWidth=1;fillColor=#33A64C;fontColor=#FFFFFF;whiteSpace=wrap;align=center;verticalAlign=middle;spacingLeft=0;fontStyle=0;fontSize=16;spacing=5;" vertex="1" parent="E8j2llxcRA6-mhXSuqtw-58">
          <mxGeometry x="160" y="320" width="90" height="40" as="geometry" />
        </mxCell>
        <mxCell id="E8j2llxcRA6-mhXSuqtw-71" value="&lt;div&gt;&lt;b&gt;&lt;font style=&quot;font-size: 20px&quot;&gt;&lt;br&gt;&lt;/font&gt;&lt;/b&gt;&lt;/div&gt;&lt;div&gt;&lt;b&gt;&lt;font style=&quot;font-size: 20px&quot;&gt;&lt;br&gt;&lt;/font&gt;&lt;/b&gt;&lt;/div&gt;&lt;div&gt;&lt;b&gt;&lt;font style=&quot;font-size: 20px&quot;&gt;{{nombre artículo}}&lt;/font&gt;&lt;/b&gt;&lt;/div&gt;&lt;br&gt;{{Descripción del artículo}}&lt;br&gt;&lt;br&gt;&lt;br&gt;&lt;br&gt;{{precio}}" style="html=1;shadow=0;dashed=0;shape=mxgraph.bootstrap.leftButton;rSize=5;strokeColor=#DFDFDF;html=1;whiteSpace=wrap;fillColor=#ffffff;fontColor=#000000;verticalAlign=top;align=left;spacing=20;spacingBottom=0;fontSize=14;spacingTop=160;" vertex="1" parent="E8j2llxcRA6-mhXSuqtw-57">
          <mxGeometry width="260" height="370" relative="1" as="geometry">
            <mxPoint x="260" as="offset" />
          </mxGeometry>
        </mxCell>
        <mxCell id="E8j2llxcRA6-mhXSuqtw-72" value="{{imagen de artículo}}" style="html=1;shadow=0;dashed=0;shape=mxgraph.basic.corner_round_rect;dx=2;perimeter=none;whiteSpace=wrap;fillColor=#868E96;strokeColor=#DFDFDF;fontColor=#DEE2E6;resizeWidth=1;fontSize=18;" vertex="1" parent="E8j2llxcRA6-mhXSuqtw-71">
          <mxGeometry width="260" height="230" relative="1" as="geometry" />
        </mxCell>
        <mxCell id="E8j2llxcRA6-mhXSuqtw-73" value="Agregar a carrito" style="html=1;shadow=0;dashed=0;shape=mxgraph.bootstrap.rrect;rSize=5;strokeColor=none;strokeWidth=1;fillColor=#33A64C;fontColor=#FFFFFF;whiteSpace=wrap;align=center;verticalAlign=middle;spacingLeft=0;fontStyle=0;fontSize=16;spacing=5;" vertex="1" parent="E8j2llxcRA6-mhXSuqtw-71">
          <mxGeometry x="160" y="320" width="90" height="40" as="geometry" />
        </mxCell>
        <mxCell id="E8j2llxcRA6-mhXSuqtw-74" value="&lt;div&gt;&lt;b&gt;&lt;font style=&quot;font-size: 20px&quot;&gt;&lt;br&gt;&lt;/font&gt;&lt;/b&gt;&lt;/div&gt;&lt;div&gt;&lt;b&gt;&lt;font style=&quot;font-size: 20px&quot;&gt;&lt;br&gt;&lt;/font&gt;&lt;/b&gt;&lt;/div&gt;&lt;div&gt;&lt;b&gt;&lt;font style=&quot;font-size: 20px&quot;&gt;{{nombre artículo}}&lt;/font&gt;&lt;/b&gt;&lt;/div&gt;&lt;br&gt;{{Descripción del artículo}}&lt;br&gt;&lt;br&gt;&lt;br&gt;&lt;br&gt;{{precio}}" style="html=1;shadow=0;dashed=0;shape=mxgraph.bootstrap.leftButton;rSize=5;strokeColor=#DFDFDF;html=1;whiteSpace=wrap;fillColor=#ffffff;fontColor=#000000;verticalAlign=top;align=left;spacing=20;spacingBottom=0;fontSize=14;spacingTop=160;" vertex="1" parent="E8j2llxcRA6-mhXSuqtw-57">
          <mxGeometry width="260" height="370" relative="1" as="geometry">
            <mxPoint x="520" as="offset" />
          </mxGeometry>
        </mxCell>
        <mxCell id="E8j2llxcRA6-mhXSuqtw-75" value="{{imagen de artículo}}" style="html=1;shadow=0;dashed=0;shape=mxgraph.basic.corner_round_rect;dx=2;perimeter=none;whiteSpace=wrap;fillColor=#868E96;strokeColor=#DFDFDF;fontColor=#DEE2E6;resizeWidth=1;fontSize=18;" vertex="1" parent="E8j2llxcRA6-mhXSuqtw-74">
          <mxGeometry width="260" height="230" relative="1" as="geometry" />
        </mxCell>
        <mxCell id="E8j2llxcRA6-mhXSuqtw-76" value="Agregar a carrito" style="html=1;shadow=0;dashed=0;shape=mxgraph.bootstrap.rrect;rSize=5;strokeColor=none;strokeWidth=1;fillColor=#33A64C;fontColor=#FFFFFF;whiteSpace=wrap;align=center;verticalAlign=middle;spacingLeft=0;fontStyle=0;fontSize=16;spacing=5;" vertex="1" parent="E8j2llxcRA6-mhXSuqtw-74">
          <mxGeometry x="160" y="320" width="90" height="40" as="geometry" />
        </mxCell>
        <mxCell id="E8j2llxcRA6-mhXSuqtw-77" value="&lt;div&gt;&lt;b&gt;&lt;font style=&quot;font-size: 20px&quot;&gt;&lt;br&gt;&lt;/font&gt;&lt;/b&gt;&lt;/div&gt;&lt;div&gt;&lt;b&gt;&lt;font style=&quot;font-size: 20px&quot;&gt;&lt;br&gt;&lt;/font&gt;&lt;/b&gt;&lt;/div&gt;&lt;div&gt;&lt;b&gt;&lt;font style=&quot;font-size: 20px&quot;&gt;{{nombre artículo}}&lt;/font&gt;&lt;/b&gt;&lt;/div&gt;&lt;br&gt;{{Descripción del artículo}}&lt;br&gt;&lt;br&gt;&lt;br&gt;&lt;br&gt;{{precio}}" style="html=1;shadow=0;dashed=0;shape=mxgraph.bootstrap.leftButton;rSize=5;strokeColor=#DFDFDF;html=1;whiteSpace=wrap;fillColor=#ffffff;fontColor=#000000;verticalAlign=top;align=left;spacing=20;spacingBottom=0;fontSize=14;spacingTop=160;" vertex="1" parent="E8j2llxcRA6-mhXSuqtw-57">
          <mxGeometry width="260" height="370" relative="1" as="geometry">
            <mxPoint x="780" as="offset" />
          </mxGeometry>
        </mxCell>
        <mxCell id="E8j2llxcRA6-mhXSuqtw-78" value="{{imagen de artículo}}" style="html=1;shadow=0;dashed=0;shape=mxgraph.basic.corner_round_rect;dx=2;perimeter=none;whiteSpace=wrap;fillColor=#868E96;strokeColor=#DFDFDF;fontColor=#DEE2E6;resizeWidth=1;fontSize=18;" vertex="1" parent="E8j2llxcRA6-mhXSuqtw-77">
          <mxGeometry width="260" height="230" relative="1" as="geometry" />
        </mxCell>
        <mxCell id="E8j2llxcRA6-mhXSuqtw-79" value="Agregar a carrito" style="html=1;shadow=0;dashed=0;shape=mxgraph.bootstrap.rrect;rSize=5;strokeColor=none;strokeWidth=1;fillColor=#33A64C;fontColor=#FFFFFF;whiteSpace=wrap;align=center;verticalAlign=middle;spacingLeft=0;fontStyle=0;fontSize=16;spacing=5;" vertex="1" parent="E8j2llxcRA6-mhXSuqtw-77">
          <mxGeometry x="160" y="320" width="90" height="40" as="geometry" />
        </mxCell>
        <mxCell id="E8j2llxcRA6-mhXSuqtw-96" value="" style="html=1;shadow=0;dashed=0;shape=mxgraph.bootstrap.rrect;rSize=5;strokeColor=#DFDFDF;html=1;whiteSpace=wrap;fillColor=#ffffff;fontColor=#A63726;" vertex="1" parent="E8j2llxcRA6-mhXSuqtw-1">
          <mxGeometry y="550" width="1040" height="370" as="geometry" />
        </mxCell>
        <mxCell id="E8j2llxcRA6-mhXSuqtw-97" value="&lt;div&gt;&lt;b&gt;&lt;font style=&quot;font-size: 20px&quot;&gt;&lt;br&gt;&lt;/font&gt;&lt;/b&gt;&lt;/div&gt;&lt;div&gt;&lt;b&gt;&lt;font style=&quot;font-size: 20px&quot;&gt;&lt;br&gt;&lt;/font&gt;&lt;/b&gt;&lt;/div&gt;&lt;div&gt;&lt;b&gt;&lt;font style=&quot;font-size: 20px&quot;&gt;{{nombre artículo}}&lt;/font&gt;&lt;/b&gt;&lt;/div&gt;&lt;br&gt;{{Descripción del artículo}}&lt;br&gt;&lt;br&gt;&lt;br&gt;&lt;br&gt;{{precio}}" style="html=1;shadow=0;dashed=0;shape=mxgraph.bootstrap.leftButton;rSize=5;strokeColor=#DFDFDF;html=1;whiteSpace=wrap;fillColor=#ffffff;fontColor=#000000;verticalAlign=top;align=left;spacing=20;spacingBottom=0;fontSize=14;spacingTop=160;" vertex="1" parent="E8j2llxcRA6-mhXSuqtw-96">
          <mxGeometry width="260" height="370" relative="1" as="geometry" />
        </mxCell>
        <mxCell id="E8j2llxcRA6-mhXSuqtw-98" value="{{imagen de artículo}}" style="html=1;shadow=0;dashed=0;shape=mxgraph.basic.corner_round_rect;dx=2;perimeter=none;whiteSpace=wrap;fillColor=#868E96;strokeColor=#DFDFDF;fontColor=#DEE2E6;resizeWidth=1;fontSize=18;" vertex="1" parent="E8j2llxcRA6-mhXSuqtw-97">
          <mxGeometry width="260" height="230" relative="1" as="geometry" />
        </mxCell>
        <mxCell id="E8j2llxcRA6-mhXSuqtw-99" value="Agregar a carrito" style="html=1;shadow=0;dashed=0;shape=mxgraph.bootstrap.rrect;rSize=5;strokeColor=none;strokeWidth=1;fillColor=#33A64C;fontColor=#FFFFFF;whiteSpace=wrap;align=center;verticalAlign=middle;spacingLeft=0;fontStyle=0;fontSize=16;spacing=5;" vertex="1" parent="E8j2llxcRA6-mhXSuqtw-97">
          <mxGeometry x="160" y="320" width="90" height="40" as="geometry" />
        </mxCell>
        <mxCell id="E8j2llxcRA6-mhXSuqtw-100" value="&lt;div&gt;&lt;b&gt;&lt;font style=&quot;font-size: 20px&quot;&gt;&lt;br&gt;&lt;/font&gt;&lt;/b&gt;&lt;/div&gt;&lt;div&gt;&lt;b&gt;&lt;font style=&quot;font-size: 20px&quot;&gt;&lt;br&gt;&lt;/font&gt;&lt;/b&gt;&lt;/div&gt;&lt;div&gt;&lt;b&gt;&lt;font style=&quot;font-size: 20px&quot;&gt;{{nombre artículo}}&lt;/font&gt;&lt;/b&gt;&lt;/div&gt;&lt;br&gt;{{Descripción del artículo}}&lt;br&gt;&lt;br&gt;&lt;br&gt;&lt;br&gt;{{precio}}" style="html=1;shadow=0;dashed=0;shape=mxgraph.bootstrap.leftButton;rSize=5;strokeColor=#DFDFDF;html=1;whiteSpace=wrap;fillColor=#ffffff;fontColor=#000000;verticalAlign=top;align=left;spacing=20;spacingBottom=0;fontSize=14;spacingTop=160;" vertex="1" parent="E8j2llxcRA6-mhXSuqtw-96">
          <mxGeometry width="260" height="370" relative="1" as="geometry">
            <mxPoint x="260" as="offset" />
          </mxGeometry>
        </mxCell>
        <mxCell id="E8j2llxcRA6-mhXSuqtw-101" value="{{imagen de artículo}}" style="html=1;shadow=0;dashed=0;shape=mxgraph.basic.corner_round_rect;dx=2;perimeter=none;whiteSpace=wrap;fillColor=#868E96;strokeColor=#DFDFDF;fontColor=#DEE2E6;resizeWidth=1;fontSize=18;" vertex="1" parent="E8j2llxcRA6-mhXSuqtw-100">
          <mxGeometry width="260" height="230" relative="1" as="geometry" />
        </mxCell>
        <mxCell id="E8j2llxcRA6-mhXSuqtw-102" value="Agregar a carrito" style="html=1;shadow=0;dashed=0;shape=mxgraph.bootstrap.rrect;rSize=5;strokeColor=none;strokeWidth=1;fillColor=#33A64C;fontColor=#FFFFFF;whiteSpace=wrap;align=center;verticalAlign=middle;spacingLeft=0;fontStyle=0;fontSize=16;spacing=5;" vertex="1" parent="E8j2llxcRA6-mhXSuqtw-100">
          <mxGeometry x="160" y="320" width="90" height="40" as="geometry" />
        </mxCell>
        <mxCell id="E8j2llxcRA6-mhXSuqtw-103" value="&lt;div&gt;&lt;b&gt;&lt;font style=&quot;font-size: 20px&quot;&gt;&lt;br&gt;&lt;/font&gt;&lt;/b&gt;&lt;/div&gt;&lt;div&gt;&lt;b&gt;&lt;font style=&quot;font-size: 20px&quot;&gt;&lt;br&gt;&lt;/font&gt;&lt;/b&gt;&lt;/div&gt;&lt;div&gt;&lt;b&gt;&lt;font style=&quot;font-size: 20px&quot;&gt;{{nombre artículo}}&lt;/font&gt;&lt;/b&gt;&lt;/div&gt;&lt;br&gt;{{Descripción del artículo}}&lt;br&gt;&lt;br&gt;&lt;br&gt;&lt;br&gt;{{precio}}" style="html=1;shadow=0;dashed=0;shape=mxgraph.bootstrap.leftButton;rSize=5;strokeColor=#DFDFDF;html=1;whiteSpace=wrap;fillColor=#ffffff;fontColor=#000000;verticalAlign=top;align=left;spacing=20;spacingBottom=0;fontSize=14;spacingTop=160;" vertex="1" parent="E8j2llxcRA6-mhXSuqtw-96">
          <mxGeometry width="260" height="370" relative="1" as="geometry">
            <mxPoint x="520" as="offset" />
          </mxGeometry>
        </mxCell>
        <mxCell id="E8j2llxcRA6-mhXSuqtw-104" value="{{imagen de artículo}}" style="html=1;shadow=0;dashed=0;shape=mxgraph.basic.corner_round_rect;dx=2;perimeter=none;whiteSpace=wrap;fillColor=#868E96;strokeColor=#DFDFDF;fontColor=#DEE2E6;resizeWidth=1;fontSize=18;" vertex="1" parent="E8j2llxcRA6-mhXSuqtw-103">
          <mxGeometry width="260" height="230" relative="1" as="geometry" />
        </mxCell>
        <mxCell id="E8j2llxcRA6-mhXSuqtw-105" value="Agregar a carrito" style="html=1;shadow=0;dashed=0;shape=mxgraph.bootstrap.rrect;rSize=5;strokeColor=none;strokeWidth=1;fillColor=#33A64C;fontColor=#FFFFFF;whiteSpace=wrap;align=center;verticalAlign=middle;spacingLeft=0;fontStyle=0;fontSize=16;spacing=5;" vertex="1" parent="E8j2llxcRA6-mhXSuqtw-103">
          <mxGeometry x="160" y="320" width="90" height="40" as="geometry" />
        </mxCell>
        <mxCell id="E8j2llxcRA6-mhXSuqtw-106" value="&lt;div&gt;&lt;b&gt;&lt;font style=&quot;font-size: 20px&quot;&gt;&lt;br&gt;&lt;/font&gt;&lt;/b&gt;&lt;/div&gt;&lt;div&gt;&lt;b&gt;&lt;font style=&quot;font-size: 20px&quot;&gt;&lt;br&gt;&lt;/font&gt;&lt;/b&gt;&lt;/div&gt;&lt;div&gt;&lt;b&gt;&lt;font style=&quot;font-size: 20px&quot;&gt;{{nombre artículo}}&lt;/font&gt;&lt;/b&gt;&lt;/div&gt;&lt;br&gt;{{Descripción del artículo}}&lt;br&gt;&lt;br&gt;&lt;br&gt;&lt;br&gt;{{precio}}" style="html=1;shadow=0;dashed=0;shape=mxgraph.bootstrap.leftButton;rSize=5;strokeColor=#DFDFDF;html=1;whiteSpace=wrap;fillColor=#ffffff;fontColor=#000000;verticalAlign=top;align=left;spacing=20;spacingBottom=0;fontSize=14;spacingTop=160;" vertex="1" parent="E8j2llxcRA6-mhXSuqtw-96">
          <mxGeometry width="260" height="370" relative="1" as="geometry">
            <mxPoint x="780" as="offset" />
          </mxGeometry>
        </mxCell>
        <mxCell id="E8j2llxcRA6-mhXSuqtw-107" value="{{imagen de artículo}}" style="html=1;shadow=0;dashed=0;shape=mxgraph.basic.corner_round_rect;dx=2;perimeter=none;whiteSpace=wrap;fillColor=#868E96;strokeColor=#DFDFDF;fontColor=#DEE2E6;resizeWidth=1;fontSize=18;" vertex="1" parent="E8j2llxcRA6-mhXSuqtw-106">
          <mxGeometry width="260" height="230" relative="1" as="geometry" />
        </mxCell>
        <mxCell id="E8j2llxcRA6-mhXSuqtw-108" value="Agregar a carrito" style="html=1;shadow=0;dashed=0;shape=mxgraph.bootstrap.rrect;rSize=5;strokeColor=none;strokeWidth=1;fillColor=#33A64C;fontColor=#FFFFFF;whiteSpace=wrap;align=center;verticalAlign=middle;spacingLeft=0;fontStyle=0;fontSize=16;spacing=5;" vertex="1" parent="E8j2llxcRA6-mhXSuqtw-106">
          <mxGeometry x="160" y="320" width="90" height="40" as="geometry" />
        </mxCell>
        <mxCell id="E8j2llxcRA6-mhXSuqtw-109" value="" style="html=1;shadow=0;dashed=0;shape=mxgraph.bootstrap.rrect;rSize=5;strokeColor=none;html=1;whiteSpace=wrap;fillColor=#6C767D;fontColor=#ffffff;sketch=0;" vertex="1" parent="E8j2llxcRA6-mhXSuqtw-1">
          <mxGeometry x="430" y="930" width="120" height="30" as="geometry" />
        </mxCell>
        <mxCell id="E8j2llxcRA6-mhXSuqtw-110" value="1" style="strokeColor=inherit;fillColor=inherit;gradientColor=inherit;fontColor=inherit;html=1;shadow=0;dashed=0;shape=mxgraph.bootstrap.leftButton;rSize=5;perimeter=none;whiteSpace=wrap;resizeHeight=1;sketch=0;" vertex="1" parent="E8j2llxcRA6-mhXSuqtw-109">
          <mxGeometry width="30" height="30" relative="1" as="geometry" />
        </mxCell>
        <mxCell id="E8j2llxcRA6-mhXSuqtw-111" value="2" style="strokeColor=inherit;fillColor=inherit;gradientColor=inherit;fontColor=inherit;html=1;shadow=0;dashed=0;perimeter=none;whiteSpace=wrap;resizeHeight=1;sketch=0;" vertex="1" parent="E8j2llxcRA6-mhXSuqtw-109">
          <mxGeometry width="30" height="30" relative="1" as="geometry">
            <mxPoint x="30" as="offset" />
          </mxGeometry>
        </mxCell>
        <mxCell id="E8j2llxcRA6-mhXSuqtw-112" value="3" style="strokeColor=inherit;fillColor=inherit;gradientColor=inherit;fontColor=inherit;html=1;shadow=0;dashed=0;perimeter=none;whiteSpace=wrap;resizeHeight=1;sketch=0;" vertex="1" parent="E8j2llxcRA6-mhXSuqtw-109">
          <mxGeometry width="30" height="30" relative="1" as="geometry">
            <mxPoint x="60" as="offset" />
          </mxGeometry>
        </mxCell>
        <mxCell id="E8j2llxcRA6-mhXSuqtw-113" value="4" style="strokeColor=inherit;fillColor=inherit;gradientColor=inherit;fontColor=inherit;html=1;shadow=0;dashed=0;shape=mxgraph.bootstrap.rightButton;rSize=5;perimeter=none;whiteSpace=wrap;resizeHeight=1;sketch=0;" vertex="1" parent="E8j2llxcRA6-mhXSuqtw-109">
          <mxGeometry x="1" width="30" height="30" relative="1" as="geometry">
            <mxPoint x="-30" as="offset" />
          </mxGeometry>
        </mxCell>
        <mxCell id="3d76a8aef4d5c911-1" value="" style="html=1;shadow=0;dashed=0;shape=mxgraph.bootstrap.rect;fillColor=#55F150;strokeColor=#82b366;whiteSpace=wrap;rounded=0;fontSize=12;align=center;" parent="1" vertex="1">
          <mxGeometry x="130" y="180" width="1040" height="60" as="geometry" />
        </mxCell>
        <mxCell id="E8j2llxcRA6-mhXSuqtw-23" value="TuDroga" style="html=1;shadow=0;dashed=0;fillColor=none;strokeColor=none;fontSize=16;fontColor=#181819;align=left;spacing=2;spacingLeft=55;" vertex="1" parent="3d76a8aef4d5c911-1">
          <mxGeometry width="181.74757281553397" height="60" as="geometry" />
        </mxCell>
        <mxCell id="E8j2llxcRA6-mhXSuqtw-24" value="" style="html=1;shadow=0;dashed=0;shape=mxgraph.bootstrap.logo;fillColor=#54407A;strokeColor=none;sketch=0;fontColor=#A63726;" vertex="1" parent="E8j2llxcRA6-mhXSuqtw-23">
          <mxGeometry width="40" height="40" relative="1" as="geometry">
            <mxPoint x="10" y="10" as="offset" />
          </mxGeometry>
        </mxCell>
        <mxCell id="E8j2llxcRA6-mhXSuqtw-15" value="&amp;nbsp;&amp;nbsp;&amp;nbsp;&amp;nbsp;&amp;nbsp;&amp;nbsp;&amp;nbsp;&amp;nbsp;&amp;nbsp;&amp;nbsp;&amp;nbsp;&amp;nbsp; &lt;i&gt;Buscar un artículo&lt;/i&gt;" style="html=1;shadow=0;dashed=0;shape=mxgraph.bootstrap.rrect;rSize=5;strokeColor=#CED4DA;html=1;whiteSpace=wrap;fillColor=#FFFFFF;fontColor=#7D868C;align=left;spacing=15;spacingLeft=80;fontSize=14;" vertex="1" parent="3d76a8aef4d5c911-1">
          <mxGeometry x="171.6504854368932" y="10" width="555.3398058252427" height="40" as="geometry" />
        </mxCell>
        <mxCell id="E8j2llxcRA6-mhXSuqtw-17" value="Buscar" style="html=1;shadow=0;dashed=0;shape=mxgraph.bootstrap.rightButton;strokeColor=#CED4DA;gradientColor=inherit;fontColor=inherit;fillColor=#E9ECEF;rSize=5;perimeter=none;whiteSpace=wrap;resizeHeight=1;fontSize=14;align=left;spacing=15;" vertex="1" parent="E8j2llxcRA6-mhXSuqtw-15">
          <mxGeometry x="1" width="80" height="40" relative="1" as="geometry">
            <mxPoint x="-80" as="offset" />
          </mxGeometry>
        </mxCell>
        <mxCell id="E8j2llxcRA6-mhXSuqtw-21" value="Categoría" style="html=1;shadow=0;dashed=0;shape=mxgraph.bootstrap.rrect;rSize=5;strokeColor=none;strokeWidth=1;fillColor=#6C767D;fontColor=#ffffff;whiteSpace=wrap;align=right;verticalAlign=middle;fontStyle=0;fontSize=14;spacingRight=20;" vertex="1" parent="E8j2llxcRA6-mhXSuqtw-15">
          <mxGeometry width="90.91263089551326" height="40" as="geometry" />
        </mxCell>
        <mxCell id="E8j2llxcRA6-mhXSuqtw-22" value="" style="shape=triangle;direction=south;fillColor=#ffffff;strokeColor=none;perimeter=none;fontColor=#A63726;" vertex="1" parent="E8j2llxcRA6-mhXSuqtw-21">
          <mxGeometry x="1" y="0.5" width="10" height="5" relative="1" as="geometry">
            <mxPoint x="-17" y="-2.5" as="offset" />
          </mxGeometry>
        </mxCell>
        <mxCell id="E8j2llxcRA6-mhXSuqtw-25" value="Usuario" style="html=1;shadow=0;dashed=0;shape=mxgraph.bootstrap.rrect;rSize=5;strokeColor=none;strokeWidth=1;fillColor=none;fontColor=#A63726;whiteSpace=wrap;align=right;verticalAlign=middle;fontStyle=0;fontSize=14;spacingRight=20;" vertex="1" parent="3d76a8aef4d5c911-1">
          <mxGeometry x="918.8349514563107" y="10" width="100.97087378640776" height="40" as="geometry" />
        </mxCell>
        <mxCell id="E8j2llxcRA6-mhXSuqtw-26" value="" style="shape=triangle;direction=south;fillColor=#ffffff;strokeColor=none;perimeter=none;fontColor=#A63726;" vertex="1" parent="E8j2llxcRA6-mhXSuqtw-25">
          <mxGeometry x="1" y="0.5" width="10" height="5" relative="1" as="geometry">
            <mxPoint x="-17" y="-2.5" as="offset" />
          </mxGeometry>
        </mxCell>
        <mxCell id="E8j2llxcRA6-mhXSuqtw-44" value="Carrito" style="html=1;shadow=0;dashed=0;shape=mxgraph.bootstrap.rrect;rSize=5;strokeColor=none;strokeWidth=1;fillColor=none;fontColor=#A63726;whiteSpace=wrap;align=right;verticalAlign=middle;fontStyle=0;fontSize=14;spacingRight=20;" vertex="1" parent="3d76a8aef4d5c911-1">
          <mxGeometry x="767.3786407766991" y="10" width="100.97087378640776" height="40" as="geometry" />
        </mxCell>
        <mxCell id="E8j2llxcRA6-mhXSuqtw-45" value="" style="shape=triangle;direction=south;fillColor=#ffffff;strokeColor=none;perimeter=none;fontColor=#A63726;" vertex="1" parent="E8j2llxcRA6-mhXSuqtw-44">
          <mxGeometry x="1" y="0.5" width="10" height="5" relative="1" as="geometry">
            <mxPoint x="-17" y="-2.5" as="offset" />
          </mxGeometry>
        </mxCell>
        <mxCell id="E8j2llxcRA6-mhXSuqtw-46" value="" style="html=1;shadow=0;dashed=0;shape=mxgraph.bootstrap.rrect;rSize=5;fillColor=#ffffff;strokeColor=#999999;fontColor=#A63726;" vertex="1" parent="1">
          <mxGeometry x="1030" y="230" width="120" height="50" as="geometry" />
        </mxCell>
        <mxCell id="E8j2llxcRA6-mhXSuqtw-47" value="Ingresar" style="fillColor=none;strokeColor=none;align=left;spacing=20;fontSize=14;fontColor=#A63726;" vertex="1" parent="E8j2llxcRA6-mhXSuqtw-46">
          <mxGeometry width="170" height="30" relative="1" as="geometry">
            <mxPoint y="10" as="offset" />
          </mxGeometry>
        </mxCell>
        <mxCell id="E8j2llxcRA6-mhXSuqtw-50" value="" style="html=1;shadow=0;dashed=0;shape=mxgraph.bootstrap.rrect;rSize=5;fillColor=#ffffff;strokeColor=#999999;fontColor=#A63726;" vertex="1" parent="1">
          <mxGeometry x="870" y="230" width="120" height="80" as="geometry" />
        </mxCell>
        <mxCell id="E8j2llxcRA6-mhXSuqtw-51" value="Ver carrito" style="fillColor=none;strokeColor=none;align=left;spacing=20;fontSize=14;fontColor=#A63726;" vertex="1" parent="E8j2llxcRA6-mhXSuqtw-50">
          <mxGeometry width="170" height="30" relative="1" as="geometry">
            <mxPoint y="10" as="offset" />
          </mxGeometry>
        </mxCell>
        <mxCell id="E8j2llxcRA6-mhXSuqtw-53" value="Pagar" style="fillColor=none;strokeColor=none;align=left;spacing=20;fontSize=14;fontColor=#A63726;" vertex="1" parent="E8j2llxcRA6-mhXSuqtw-50">
          <mxGeometry width="170" height="30" relative="1" as="geometry">
            <mxPoint y="40" as="offset" />
          </mxGeometry>
        </mxCell>
        <mxCell id="E8j2llxcRA6-mhXSuqtw-117" value="" style="html=1;shadow=0;dashed=0;shape=mxgraph.bootstrap.rrect;rSize=5;fillColor=#ffffff;strokeColor=#999999;fontColor=#A63726;" vertex="1" parent="1">
          <mxGeometry x="290" y="230" width="120" height="80" as="geometry" />
        </mxCell>
        <mxCell id="E8j2llxcRA6-mhXSuqtw-118" value="Antialérgico" style="fillColor=none;strokeColor=none;align=left;spacing=20;fontSize=14;fontColor=#A63726;" vertex="1" parent="E8j2llxcRA6-mhXSuqtw-117">
          <mxGeometry width="170" height="30" relative="1" as="geometry">
            <mxPoint y="10" as="offset" />
          </mxGeometry>
        </mxCell>
        <mxCell id="E8j2llxcRA6-mhXSuqtw-119" value="Maternidad" style="fillColor=none;strokeColor=none;align=left;spacing=20;fontSize=14;fontColor=#A63726;" vertex="1" parent="E8j2llxcRA6-mhXSuqtw-117">
          <mxGeometry width="170" height="30" relative="1" as="geometry">
            <mxPoint y="40" as="offset" />
          </mxGeometry>
        </mxCell>
        <mxCell id="E8j2llxcRA6-mhXSuqtw-128" value="" style="html=1;shadow=0;dashed=0;shape=mxgraph.bootstrap.rrect;rSize=5;fillColor=#ffffff;strokeColor=#999999;fontColor=#A63726;" vertex="1" parent="1">
          <mxGeometry x="1280" y="310" width="220" height="345" as="geometry" />
        </mxCell>
        <mxCell id="E8j2llxcRA6-mhXSuqtw-129" value="Email address" style="fillColor=none;strokeColor=none;align=left;spacing=20;fontSize=14;fontColor=#A63726;" vertex="1" parent="E8j2llxcRA6-mhXSuqtw-128">
          <mxGeometry width="220" height="40" relative="1" as="geometry">
            <mxPoint y="10" as="offset" />
          </mxGeometry>
        </mxCell>
        <mxCell id="E8j2llxcRA6-mhXSuqtw-130" value="email@example.com" style="html=1;shadow=0;dashed=0;shape=mxgraph.bootstrap.rrect;rSize=5;fillColor=none;strokeColor=#999999;align=left;spacing=15;fontSize=14;fontColor=#6C767D;" vertex="1" parent="E8j2llxcRA6-mhXSuqtw-128">
          <mxGeometry width="180" height="30" relative="1" as="geometry">
            <mxPoint x="20" y="50" as="offset" />
          </mxGeometry>
        </mxCell>
        <mxCell id="E8j2llxcRA6-mhXSuqtw-131" value="Password" style="fillColor=none;strokeColor=none;align=left;spacing=20;fontSize=14;fontColor=#A63726;" vertex="1" parent="E8j2llxcRA6-mhXSuqtw-128">
          <mxGeometry width="220" height="40" relative="1" as="geometry">
            <mxPoint y="90" as="offset" />
          </mxGeometry>
        </mxCell>
        <mxCell id="E8j2llxcRA6-mhXSuqtw-132" value="Password" style="html=1;shadow=0;dashed=0;shape=mxgraph.bootstrap.rrect;rSize=5;fillColor=none;strokeColor=#999999;align=left;spacing=15;fontSize=14;fontColor=#6C767D;" vertex="1" parent="E8j2llxcRA6-mhXSuqtw-128">
          <mxGeometry width="180" height="30" relative="1" as="geometry">
            <mxPoint x="20" y="130" as="offset" />
          </mxGeometry>
        </mxCell>
        <mxCell id="E8j2llxcRA6-mhXSuqtw-133" value="Remember me" style="html=1;shadow=0;dashed=0;shape=mxgraph.bootstrap.rrect;rSize=2;fillColor=#EDEDED;strokeColor=#999999;align=left;fontSize=14;fontColor=#000000;labelPosition=right;verticalLabelPosition=middle;verticalAlign=middle;spacingLeft=5;spacingTop=-2;gradientColor=#DEDEDE;" vertex="1" parent="E8j2llxcRA6-mhXSuqtw-128">
          <mxGeometry width="10" height="10" relative="1" as="geometry">
            <mxPoint x="20" y="180" as="offset" />
          </mxGeometry>
        </mxCell>
        <mxCell id="E8j2llxcRA6-mhXSuqtw-134" value="Sign in" style="html=1;shadow=0;dashed=0;shape=mxgraph.bootstrap.rrect;rSize=5;fillColor=#0085FC;strokeColor=none;align=center;fontSize=14;fontColor=#FFFFFF;" vertex="1" parent="E8j2llxcRA6-mhXSuqtw-128">
          <mxGeometry width="70" height="40" relative="1" as="geometry">
            <mxPoint x="20" y="210" as="offset" />
          </mxGeometry>
        </mxCell>
        <mxCell id="E8j2llxcRA6-mhXSuqtw-135" value="" style="shape=line;strokeColor=#999999;perimeter=none;resizeWidth=1;fontColor=#A63726;fillColor=default;" vertex="1" parent="E8j2llxcRA6-mhXSuqtw-128">
          <mxGeometry width="220" height="10" relative="1" as="geometry">
            <mxPoint y="260" as="offset" />
          </mxGeometry>
        </mxCell>
        <mxCell id="E8j2llxcRA6-mhXSuqtw-136" value="New around here? Sign up&lt;br&gt;&lt;br&gt;Forgot password?" style="html=1;fillColor=none;strokeColor=none;align=left;spacing=20;fontSize=14;fontColor=#A63726;" vertex="1" parent="E8j2llxcRA6-mhXSuqtw-128">
          <mxGeometry width="220" height="60" relative="1" as="geometry">
            <mxPoint y="275" as="offset" />
          </mxGeometry>
        </mxCell>
        <mxCell id="E8j2llxcRA6-mhXSuqtw-138" value="ventana modal" style="fillColor=none;strokeColor=none;align=left;spacing=20;fontSize=9;fontColor=#A63726;" vertex="1" parent="E8j2llxcRA6-mhXSuqtw-128">
          <mxGeometry width="100" height="20" relative="1" as="geometry">
            <mxPoint x="60" as="offset" />
          </mxGeometry>
        </mxCell>
        <mxCell id="E8j2llxcRA6-mhXSuqtw-139" value="" style="endArrow=none;dashed=1;html=1;rounded=0;fontSize=9;fontColor=#A63726;" edge="1" parent="1" target="E8j2llxcRA6-mhXSuqtw-47">
          <mxGeometry width="50" height="50" relative="1" as="geometry">
            <mxPoint x="1300" y="510" as="sourcePoint" />
            <mxPoint x="1350" y="460" as="targetPoint" />
          </mxGeometry>
        </mxCell>
        <mxCell id="E8j2llxcRA6-mhXSuqtw-277" value="" style="strokeWidth=1;shadow=0;dashed=0;align=center;html=1;shape=mxgraph.mockup.containers.browserWindow;rSize=0;strokeColor2=#008cff;strokeColor3=#c4c4c4;mainText=,;recursiveResize=0;" vertex="1" parent="1">
          <mxGeometry x="1590" y="80" width="1040" height="970" as="geometry" />
        </mxCell>
        <mxCell id="E8j2llxcRA6-mhXSuqtw-278" value="Page 1" style="strokeWidth=1;shadow=0;dashed=0;align=center;html=1;shape=mxgraph.mockup.containers.anchor;fontSize=17;fontColor=#666666;align=left;fillColor=#55F150;" vertex="1" parent="E8j2llxcRA6-mhXSuqtw-277">
          <mxGeometry x="60" y="12" width="110" height="26" as="geometry" />
        </mxCell>
        <mxCell id="E8j2llxcRA6-mhXSuqtw-279" value="https://www.tudrogajaja.com" style="strokeWidth=1;shadow=0;dashed=0;align=center;html=1;shape=mxgraph.mockup.containers.anchor;rSize=0;fontSize=17;fontColor=#666666;align=left;fillColor=#55F150;" vertex="1" parent="E8j2llxcRA6-mhXSuqtw-277">
          <mxGeometry x="130" y="60" width="250" height="26" as="geometry" />
        </mxCell>
        <mxCell id="E8j2llxcRA6-mhXSuqtw-280" value="" style="html=1;shadow=0;dashed=0;shape=mxgraph.bootstrap.rrect;rSize=5;strokeColor=#DFDFDF;html=1;whiteSpace=wrap;fillColor=#ffffff;fontColor=#A63726;" vertex="1" parent="E8j2llxcRA6-mhXSuqtw-277">
          <mxGeometry y="170" width="1030" height="370" as="geometry" />
        </mxCell>
        <mxCell id="E8j2llxcRA6-mhXSuqtw-281" value="&lt;div&gt;&lt;b&gt;&lt;font style=&quot;font-size: 20px&quot;&gt;&lt;br&gt;&lt;/font&gt;&lt;/b&gt;&lt;/div&gt;&lt;div&gt;&lt;b&gt;&lt;font style=&quot;font-size: 20px&quot;&gt;&lt;br&gt;&lt;/font&gt;&lt;/b&gt;&lt;/div&gt;&lt;div&gt;&lt;b&gt;&lt;font style=&quot;font-size: 20px&quot;&gt;{{nombre artículo}}&lt;/font&gt;&lt;/b&gt;&lt;/div&gt;&lt;br&gt;{{Descripción del artículo}}&lt;br&gt;&lt;br&gt;&lt;br&gt;&lt;br&gt;{{precio}}" style="html=1;shadow=0;dashed=0;shape=mxgraph.bootstrap.leftButton;rSize=5;strokeColor=#DFDFDF;html=1;whiteSpace=wrap;fillColor=#ffffff;fontColor=#000000;verticalAlign=top;align=left;spacing=20;spacingBottom=0;fontSize=14;spacingTop=160;" vertex="1" parent="E8j2llxcRA6-mhXSuqtw-280">
          <mxGeometry width="260" height="370" relative="1" as="geometry" />
        </mxCell>
        <mxCell id="E8j2llxcRA6-mhXSuqtw-282" value="{{imagen de artículo}}" style="html=1;shadow=0;dashed=0;shape=mxgraph.basic.corner_round_rect;dx=2;perimeter=none;whiteSpace=wrap;fillColor=#868E96;strokeColor=#DFDFDF;fontColor=#DEE2E6;resizeWidth=1;fontSize=18;" vertex="1" parent="E8j2llxcRA6-mhXSuqtw-281">
          <mxGeometry width="260" height="230" relative="1" as="geometry" />
        </mxCell>
        <mxCell id="E8j2llxcRA6-mhXSuqtw-332" value="Eliminar" style="html=1;shadow=0;dashed=0;shape=mxgraph.bootstrap.rrect;rSize=5;strokeColor=none;strokeWidth=1;fillColor=#DB2843;fontColor=#FFFFFF;whiteSpace=wrap;align=center;verticalAlign=middle;spacingLeft=0;fontStyle=0;fontSize=16;spacing=5;" vertex="1" parent="E8j2llxcRA6-mhXSuqtw-281">
          <mxGeometry x="190" y="330" width="67.11" height="30" as="geometry" />
        </mxCell>
        <mxCell id="E8j2llxcRA6-mhXSuqtw-333" value="Editar" style="html=1;shadow=0;dashed=0;shape=mxgraph.bootstrap.rrect;rSize=5;strokeColor=none;strokeWidth=1;fillColor=#0085FC;fontColor=#FFFFFF;whiteSpace=wrap;align=center;verticalAlign=middle;spacingLeft=0;fontStyle=0;fontSize=16;spacing=5;" vertex="1" parent="E8j2llxcRA6-mhXSuqtw-281">
          <mxGeometry x="110" y="330" width="70" height="30" as="geometry" />
        </mxCell>
        <mxCell id="E8j2llxcRA6-mhXSuqtw-335" value="&lt;div&gt;&lt;b&gt;&lt;font style=&quot;font-size: 20px&quot;&gt;&lt;br&gt;&lt;/font&gt;&lt;/b&gt;&lt;/div&gt;&lt;div&gt;&lt;b&gt;&lt;font style=&quot;font-size: 20px&quot;&gt;&lt;br&gt;&lt;/font&gt;&lt;/b&gt;&lt;/div&gt;&lt;div&gt;&lt;b&gt;&lt;font style=&quot;font-size: 20px&quot;&gt;{{nombre artículo}}&lt;/font&gt;&lt;/b&gt;&lt;/div&gt;&lt;br&gt;{{Descripción del artículo}}&lt;br&gt;&lt;br&gt;&lt;br&gt;&lt;br&gt;{{precio}}" style="html=1;shadow=0;dashed=0;shape=mxgraph.bootstrap.leftButton;rSize=5;strokeColor=#DFDFDF;html=1;whiteSpace=wrap;fillColor=#ffffff;fontColor=#000000;verticalAlign=top;align=left;spacing=20;spacingBottom=0;fontSize=14;spacingTop=160;" vertex="1" parent="E8j2llxcRA6-mhXSuqtw-280">
          <mxGeometry width="260" height="370" relative="1" as="geometry">
            <mxPoint x="260" as="offset" />
          </mxGeometry>
        </mxCell>
        <mxCell id="E8j2llxcRA6-mhXSuqtw-336" value="{{imagen de artículo}}" style="html=1;shadow=0;dashed=0;shape=mxgraph.basic.corner_round_rect;dx=2;perimeter=none;whiteSpace=wrap;fillColor=#868E96;strokeColor=#DFDFDF;fontColor=#DEE2E6;resizeWidth=1;fontSize=18;" vertex="1" parent="E8j2llxcRA6-mhXSuqtw-335">
          <mxGeometry width="260" height="230" relative="1" as="geometry" />
        </mxCell>
        <mxCell id="E8j2llxcRA6-mhXSuqtw-337" value="Eliminar" style="html=1;shadow=0;dashed=0;shape=mxgraph.bootstrap.rrect;rSize=5;strokeColor=none;strokeWidth=1;fillColor=#DB2843;fontColor=#FFFFFF;whiteSpace=wrap;align=center;verticalAlign=middle;spacingLeft=0;fontStyle=0;fontSize=16;spacing=5;" vertex="1" parent="E8j2llxcRA6-mhXSuqtw-335">
          <mxGeometry x="190" y="330" width="67.11" height="30" as="geometry" />
        </mxCell>
        <mxCell id="E8j2llxcRA6-mhXSuqtw-338" value="Editar" style="html=1;shadow=0;dashed=0;shape=mxgraph.bootstrap.rrect;rSize=5;strokeColor=none;strokeWidth=1;fillColor=#0085FC;fontColor=#FFFFFF;whiteSpace=wrap;align=center;verticalAlign=middle;spacingLeft=0;fontStyle=0;fontSize=16;spacing=5;" vertex="1" parent="E8j2llxcRA6-mhXSuqtw-335">
          <mxGeometry x="110" y="330" width="70" height="30" as="geometry" />
        </mxCell>
        <mxCell id="E8j2llxcRA6-mhXSuqtw-339" value="&lt;div&gt;&lt;b&gt;&lt;font style=&quot;font-size: 20px&quot;&gt;&lt;br&gt;&lt;/font&gt;&lt;/b&gt;&lt;/div&gt;&lt;div&gt;&lt;b&gt;&lt;font style=&quot;font-size: 20px&quot;&gt;&lt;br&gt;&lt;/font&gt;&lt;/b&gt;&lt;/div&gt;&lt;div&gt;&lt;b&gt;&lt;font style=&quot;font-size: 20px&quot;&gt;{{nombre artículo}}&lt;/font&gt;&lt;/b&gt;&lt;/div&gt;&lt;br&gt;{{Descripción del artículo}}&lt;br&gt;&lt;br&gt;&lt;br&gt;&lt;br&gt;{{precio}}" style="html=1;shadow=0;dashed=0;shape=mxgraph.bootstrap.leftButton;rSize=5;strokeColor=#DFDFDF;html=1;whiteSpace=wrap;fillColor=#ffffff;fontColor=#000000;verticalAlign=top;align=left;spacing=20;spacingBottom=0;fontSize=14;spacingTop=160;" vertex="1" parent="E8j2llxcRA6-mhXSuqtw-280">
          <mxGeometry width="260" height="370" relative="1" as="geometry">
            <mxPoint x="520" as="offset" />
          </mxGeometry>
        </mxCell>
        <mxCell id="E8j2llxcRA6-mhXSuqtw-340" value="{{imagen de artículo}}" style="html=1;shadow=0;dashed=0;shape=mxgraph.basic.corner_round_rect;dx=2;perimeter=none;whiteSpace=wrap;fillColor=#868E96;strokeColor=#DFDFDF;fontColor=#DEE2E6;resizeWidth=1;fontSize=18;" vertex="1" parent="E8j2llxcRA6-mhXSuqtw-339">
          <mxGeometry width="260" height="230" relative="1" as="geometry" />
        </mxCell>
        <mxCell id="E8j2llxcRA6-mhXSuqtw-341" value="Eliminar" style="html=1;shadow=0;dashed=0;shape=mxgraph.bootstrap.rrect;rSize=5;strokeColor=none;strokeWidth=1;fillColor=#DB2843;fontColor=#FFFFFF;whiteSpace=wrap;align=center;verticalAlign=middle;spacingLeft=0;fontStyle=0;fontSize=16;spacing=5;" vertex="1" parent="E8j2llxcRA6-mhXSuqtw-339">
          <mxGeometry x="190" y="330" width="67.11" height="30" as="geometry" />
        </mxCell>
        <mxCell id="E8j2llxcRA6-mhXSuqtw-342" value="Editar" style="html=1;shadow=0;dashed=0;shape=mxgraph.bootstrap.rrect;rSize=5;strokeColor=none;strokeWidth=1;fillColor=#0085FC;fontColor=#FFFFFF;whiteSpace=wrap;align=center;verticalAlign=middle;spacingLeft=0;fontStyle=0;fontSize=16;spacing=5;" vertex="1" parent="E8j2llxcRA6-mhXSuqtw-339">
          <mxGeometry x="110" y="330" width="70" height="30" as="geometry" />
        </mxCell>
        <mxCell id="E8j2llxcRA6-mhXSuqtw-343" value="&lt;div&gt;&lt;b&gt;&lt;font style=&quot;font-size: 20px&quot;&gt;&lt;br&gt;&lt;/font&gt;&lt;/b&gt;&lt;/div&gt;&lt;div&gt;&lt;b&gt;&lt;font style=&quot;font-size: 20px&quot;&gt;&lt;br&gt;&lt;/font&gt;&lt;/b&gt;&lt;/div&gt;&lt;div&gt;&lt;b&gt;&lt;font style=&quot;font-size: 20px&quot;&gt;{{nombre artículo}}&lt;/font&gt;&lt;/b&gt;&lt;/div&gt;&lt;br&gt;{{Descripción del artículo}}&lt;br&gt;&lt;br&gt;&lt;br&gt;&lt;br&gt;{{precio}}" style="html=1;shadow=0;dashed=0;shape=mxgraph.bootstrap.leftButton;rSize=5;strokeColor=#DFDFDF;html=1;whiteSpace=wrap;fillColor=#ffffff;fontColor=#000000;verticalAlign=top;align=left;spacing=20;spacingBottom=0;fontSize=14;spacingTop=160;" vertex="1" parent="E8j2llxcRA6-mhXSuqtw-280">
          <mxGeometry width="260" height="370" relative="1" as="geometry">
            <mxPoint x="780" as="offset" />
          </mxGeometry>
        </mxCell>
        <mxCell id="E8j2llxcRA6-mhXSuqtw-344" value="{{imagen de artículo}}" style="html=1;shadow=0;dashed=0;shape=mxgraph.basic.corner_round_rect;dx=2;perimeter=none;whiteSpace=wrap;fillColor=#868E96;strokeColor=#DFDFDF;fontColor=#DEE2E6;resizeWidth=1;fontSize=18;" vertex="1" parent="E8j2llxcRA6-mhXSuqtw-343">
          <mxGeometry width="260" height="230" relative="1" as="geometry" />
        </mxCell>
        <mxCell id="E8j2llxcRA6-mhXSuqtw-345" value="Eliminar" style="html=1;shadow=0;dashed=0;shape=mxgraph.bootstrap.rrect;rSize=5;strokeColor=none;strokeWidth=1;fillColor=#DB2843;fontColor=#FFFFFF;whiteSpace=wrap;align=center;verticalAlign=middle;spacingLeft=0;fontStyle=0;fontSize=16;spacing=5;" vertex="1" parent="E8j2llxcRA6-mhXSuqtw-343">
          <mxGeometry x="190" y="330" width="67.11" height="30" as="geometry" />
        </mxCell>
        <mxCell id="E8j2llxcRA6-mhXSuqtw-346" value="Editar" style="html=1;shadow=0;dashed=0;shape=mxgraph.bootstrap.rrect;rSize=5;strokeColor=none;strokeWidth=1;fillColor=#0085FC;fontColor=#FFFFFF;whiteSpace=wrap;align=center;verticalAlign=middle;spacingLeft=0;fontStyle=0;fontSize=16;spacing=5;" vertex="1" parent="E8j2llxcRA6-mhXSuqtw-343">
          <mxGeometry x="110" y="330" width="70" height="30" as="geometry" />
        </mxCell>
        <mxCell id="E8j2llxcRA6-mhXSuqtw-306" value="" style="html=1;shadow=0;dashed=0;shape=mxgraph.bootstrap.rrect;rSize=5;strokeColor=none;html=1;whiteSpace=wrap;fillColor=#6C767D;fontColor=#ffffff;sketch=0;" vertex="1" parent="E8j2llxcRA6-mhXSuqtw-277">
          <mxGeometry x="430" y="930" width="120" height="30" as="geometry" />
        </mxCell>
        <mxCell id="E8j2llxcRA6-mhXSuqtw-307" value="1" style="strokeColor=inherit;fillColor=inherit;gradientColor=inherit;fontColor=inherit;html=1;shadow=0;dashed=0;shape=mxgraph.bootstrap.leftButton;rSize=5;perimeter=none;whiteSpace=wrap;resizeHeight=1;sketch=0;" vertex="1" parent="E8j2llxcRA6-mhXSuqtw-306">
          <mxGeometry width="30" height="30" relative="1" as="geometry" />
        </mxCell>
        <mxCell id="E8j2llxcRA6-mhXSuqtw-308" value="2" style="strokeColor=inherit;fillColor=inherit;gradientColor=inherit;fontColor=inherit;html=1;shadow=0;dashed=0;perimeter=none;whiteSpace=wrap;resizeHeight=1;sketch=0;" vertex="1" parent="E8j2llxcRA6-mhXSuqtw-306">
          <mxGeometry width="30" height="30" relative="1" as="geometry">
            <mxPoint x="30" as="offset" />
          </mxGeometry>
        </mxCell>
        <mxCell id="E8j2llxcRA6-mhXSuqtw-309" value="3" style="strokeColor=inherit;fillColor=inherit;gradientColor=inherit;fontColor=inherit;html=1;shadow=0;dashed=0;perimeter=none;whiteSpace=wrap;resizeHeight=1;sketch=0;" vertex="1" parent="E8j2llxcRA6-mhXSuqtw-306">
          <mxGeometry width="30" height="30" relative="1" as="geometry">
            <mxPoint x="60" as="offset" />
          </mxGeometry>
        </mxCell>
        <mxCell id="E8j2llxcRA6-mhXSuqtw-310" value="4" style="strokeColor=inherit;fillColor=inherit;gradientColor=inherit;fontColor=inherit;html=1;shadow=0;dashed=0;shape=mxgraph.bootstrap.rightButton;rSize=5;perimeter=none;whiteSpace=wrap;resizeHeight=1;sketch=0;" vertex="1" parent="E8j2llxcRA6-mhXSuqtw-306">
          <mxGeometry x="1" width="30" height="30" relative="1" as="geometry">
            <mxPoint x="-30" as="offset" />
          </mxGeometry>
        </mxCell>
        <mxCell id="E8j2llxcRA6-mhXSuqtw-347" value="" style="html=1;shadow=0;dashed=0;shape=mxgraph.bootstrap.rrect;rSize=5;strokeColor=#DFDFDF;html=1;whiteSpace=wrap;fillColor=#ffffff;fontColor=#A63726;" vertex="1" parent="E8j2llxcRA6-mhXSuqtw-277">
          <mxGeometry y="550" width="1030" height="370" as="geometry" />
        </mxCell>
        <mxCell id="E8j2llxcRA6-mhXSuqtw-348" value="&lt;div&gt;&lt;b&gt;&lt;font style=&quot;font-size: 20px&quot;&gt;&lt;br&gt;&lt;/font&gt;&lt;/b&gt;&lt;/div&gt;&lt;div&gt;&lt;b&gt;&lt;font style=&quot;font-size: 20px&quot;&gt;&lt;br&gt;&lt;/font&gt;&lt;/b&gt;&lt;/div&gt;&lt;div&gt;&lt;b&gt;&lt;font style=&quot;font-size: 20px&quot;&gt;{{nombre artículo}}&lt;/font&gt;&lt;/b&gt;&lt;/div&gt;&lt;br&gt;{{Descripción del artículo}}&lt;br&gt;&lt;br&gt;&lt;br&gt;&lt;br&gt;{{precio}}" style="html=1;shadow=0;dashed=0;shape=mxgraph.bootstrap.leftButton;rSize=5;strokeColor=#DFDFDF;html=1;whiteSpace=wrap;fillColor=#ffffff;fontColor=#000000;verticalAlign=top;align=left;spacing=20;spacingBottom=0;fontSize=14;spacingTop=160;" vertex="1" parent="E8j2llxcRA6-mhXSuqtw-347">
          <mxGeometry width="260" height="370" relative="1" as="geometry" />
        </mxCell>
        <mxCell id="E8j2llxcRA6-mhXSuqtw-349" value="{{imagen de artículo}}" style="html=1;shadow=0;dashed=0;shape=mxgraph.basic.corner_round_rect;dx=2;perimeter=none;whiteSpace=wrap;fillColor=#868E96;strokeColor=#DFDFDF;fontColor=#DEE2E6;resizeWidth=1;fontSize=18;" vertex="1" parent="E8j2llxcRA6-mhXSuqtw-348">
          <mxGeometry width="260" height="230" relative="1" as="geometry" />
        </mxCell>
        <mxCell id="E8j2llxcRA6-mhXSuqtw-350" value="Eliminar" style="html=1;shadow=0;dashed=0;shape=mxgraph.bootstrap.rrect;rSize=5;strokeColor=none;strokeWidth=1;fillColor=#DB2843;fontColor=#FFFFFF;whiteSpace=wrap;align=center;verticalAlign=middle;spacingLeft=0;fontStyle=0;fontSize=16;spacing=5;" vertex="1" parent="E8j2llxcRA6-mhXSuqtw-348">
          <mxGeometry x="190" y="330" width="67.11" height="30" as="geometry" />
        </mxCell>
        <mxCell id="E8j2llxcRA6-mhXSuqtw-351" value="Editar" style="html=1;shadow=0;dashed=0;shape=mxgraph.bootstrap.rrect;rSize=5;strokeColor=none;strokeWidth=1;fillColor=#0085FC;fontColor=#FFFFFF;whiteSpace=wrap;align=center;verticalAlign=middle;spacingLeft=0;fontStyle=0;fontSize=16;spacing=5;" vertex="1" parent="E8j2llxcRA6-mhXSuqtw-348">
          <mxGeometry x="110" y="330" width="70" height="30" as="geometry" />
        </mxCell>
        <mxCell id="E8j2llxcRA6-mhXSuqtw-352" value="&lt;div&gt;&lt;b&gt;&lt;font style=&quot;font-size: 20px&quot;&gt;&lt;br&gt;&lt;/font&gt;&lt;/b&gt;&lt;/div&gt;&lt;div&gt;&lt;b&gt;&lt;font style=&quot;font-size: 20px&quot;&gt;&lt;br&gt;&lt;/font&gt;&lt;/b&gt;&lt;/div&gt;&lt;div&gt;&lt;b&gt;&lt;font style=&quot;font-size: 20px&quot;&gt;{{nombre artículo}}&lt;/font&gt;&lt;/b&gt;&lt;/div&gt;&lt;br&gt;{{Descripción del artículo}}&lt;br&gt;&lt;br&gt;&lt;br&gt;&lt;br&gt;{{precio}}" style="html=1;shadow=0;dashed=0;shape=mxgraph.bootstrap.leftButton;rSize=5;strokeColor=#DFDFDF;html=1;whiteSpace=wrap;fillColor=#ffffff;fontColor=#000000;verticalAlign=top;align=left;spacing=20;spacingBottom=0;fontSize=14;spacingTop=160;" vertex="1" parent="E8j2llxcRA6-mhXSuqtw-347">
          <mxGeometry width="260" height="370" relative="1" as="geometry">
            <mxPoint x="260" as="offset" />
          </mxGeometry>
        </mxCell>
        <mxCell id="E8j2llxcRA6-mhXSuqtw-353" value="{{imagen de artículo}}" style="html=1;shadow=0;dashed=0;shape=mxgraph.basic.corner_round_rect;dx=2;perimeter=none;whiteSpace=wrap;fillColor=#868E96;strokeColor=#DFDFDF;fontColor=#DEE2E6;resizeWidth=1;fontSize=18;" vertex="1" parent="E8j2llxcRA6-mhXSuqtw-352">
          <mxGeometry width="260" height="230" relative="1" as="geometry" />
        </mxCell>
        <mxCell id="E8j2llxcRA6-mhXSuqtw-354" value="Eliminar" style="html=1;shadow=0;dashed=0;shape=mxgraph.bootstrap.rrect;rSize=5;strokeColor=none;strokeWidth=1;fillColor=#DB2843;fontColor=#FFFFFF;whiteSpace=wrap;align=center;verticalAlign=middle;spacingLeft=0;fontStyle=0;fontSize=16;spacing=5;" vertex="1" parent="E8j2llxcRA6-mhXSuqtw-352">
          <mxGeometry x="190" y="330" width="67.11" height="30" as="geometry" />
        </mxCell>
        <mxCell id="E8j2llxcRA6-mhXSuqtw-355" value="Editar" style="html=1;shadow=0;dashed=0;shape=mxgraph.bootstrap.rrect;rSize=5;strokeColor=none;strokeWidth=1;fillColor=#0085FC;fontColor=#FFFFFF;whiteSpace=wrap;align=center;verticalAlign=middle;spacingLeft=0;fontStyle=0;fontSize=16;spacing=5;" vertex="1" parent="E8j2llxcRA6-mhXSuqtw-352">
          <mxGeometry x="110" y="330" width="70" height="30" as="geometry" />
        </mxCell>
        <mxCell id="E8j2llxcRA6-mhXSuqtw-356" value="&lt;div&gt;&lt;b&gt;&lt;font style=&quot;font-size: 20px&quot;&gt;&lt;br&gt;&lt;/font&gt;&lt;/b&gt;&lt;/div&gt;&lt;div&gt;&lt;b&gt;&lt;font style=&quot;font-size: 20px&quot;&gt;&lt;br&gt;&lt;/font&gt;&lt;/b&gt;&lt;/div&gt;&lt;div&gt;&lt;b&gt;&lt;font style=&quot;font-size: 20px&quot;&gt;{{nombre artículo}}&lt;/font&gt;&lt;/b&gt;&lt;/div&gt;&lt;br&gt;{{Descripción del artículo}}&lt;br&gt;&lt;br&gt;&lt;br&gt;&lt;br&gt;{{precio}}" style="html=1;shadow=0;dashed=0;shape=mxgraph.bootstrap.leftButton;rSize=5;strokeColor=#DFDFDF;html=1;whiteSpace=wrap;fillColor=#ffffff;fontColor=#000000;verticalAlign=top;align=left;spacing=20;spacingBottom=0;fontSize=14;spacingTop=160;" vertex="1" parent="E8j2llxcRA6-mhXSuqtw-347">
          <mxGeometry width="260" height="370" relative="1" as="geometry">
            <mxPoint x="520" as="offset" />
          </mxGeometry>
        </mxCell>
        <mxCell id="E8j2llxcRA6-mhXSuqtw-357" value="{{imagen de artículo}}" style="html=1;shadow=0;dashed=0;shape=mxgraph.basic.corner_round_rect;dx=2;perimeter=none;whiteSpace=wrap;fillColor=#868E96;strokeColor=#DFDFDF;fontColor=#DEE2E6;resizeWidth=1;fontSize=18;" vertex="1" parent="E8j2llxcRA6-mhXSuqtw-356">
          <mxGeometry width="260" height="230" relative="1" as="geometry" />
        </mxCell>
        <mxCell id="E8j2llxcRA6-mhXSuqtw-358" value="Eliminar" style="html=1;shadow=0;dashed=0;shape=mxgraph.bootstrap.rrect;rSize=5;strokeColor=none;strokeWidth=1;fillColor=#DB2843;fontColor=#FFFFFF;whiteSpace=wrap;align=center;verticalAlign=middle;spacingLeft=0;fontStyle=0;fontSize=16;spacing=5;" vertex="1" parent="E8j2llxcRA6-mhXSuqtw-356">
          <mxGeometry x="190" y="330" width="67.11" height="30" as="geometry" />
        </mxCell>
        <mxCell id="E8j2llxcRA6-mhXSuqtw-359" value="Editar" style="html=1;shadow=0;dashed=0;shape=mxgraph.bootstrap.rrect;rSize=5;strokeColor=none;strokeWidth=1;fillColor=#0085FC;fontColor=#FFFFFF;whiteSpace=wrap;align=center;verticalAlign=middle;spacingLeft=0;fontStyle=0;fontSize=16;spacing=5;" vertex="1" parent="E8j2llxcRA6-mhXSuqtw-356">
          <mxGeometry x="110" y="330" width="70" height="30" as="geometry" />
        </mxCell>
        <mxCell id="E8j2llxcRA6-mhXSuqtw-360" value="&lt;div&gt;&lt;b&gt;&lt;font style=&quot;font-size: 20px&quot;&gt;&lt;br&gt;&lt;/font&gt;&lt;/b&gt;&lt;/div&gt;&lt;div&gt;&lt;b&gt;&lt;font style=&quot;font-size: 20px&quot;&gt;&lt;br&gt;&lt;/font&gt;&lt;/b&gt;&lt;/div&gt;&lt;div&gt;&lt;b&gt;&lt;font style=&quot;font-size: 20px&quot;&gt;{{nombre artículo}}&lt;/font&gt;&lt;/b&gt;&lt;/div&gt;&lt;br&gt;{{Descripción del artículo}}&lt;br&gt;&lt;br&gt;&lt;br&gt;&lt;br&gt;{{precio}}" style="html=1;shadow=0;dashed=0;shape=mxgraph.bootstrap.leftButton;rSize=5;strokeColor=#DFDFDF;html=1;whiteSpace=wrap;fillColor=#ffffff;fontColor=#000000;verticalAlign=top;align=left;spacing=20;spacingBottom=0;fontSize=14;spacingTop=160;" vertex="1" parent="E8j2llxcRA6-mhXSuqtw-347">
          <mxGeometry width="260" height="370" relative="1" as="geometry">
            <mxPoint x="780" as="offset" />
          </mxGeometry>
        </mxCell>
        <mxCell id="E8j2llxcRA6-mhXSuqtw-361" value="{{imagen de artículo}}" style="html=1;shadow=0;dashed=0;shape=mxgraph.basic.corner_round_rect;dx=2;perimeter=none;whiteSpace=wrap;fillColor=#868E96;strokeColor=#DFDFDF;fontColor=#DEE2E6;resizeWidth=1;fontSize=18;" vertex="1" parent="E8j2llxcRA6-mhXSuqtw-360">
          <mxGeometry width="260" height="230" relative="1" as="geometry" />
        </mxCell>
        <mxCell id="E8j2llxcRA6-mhXSuqtw-362" value="Eliminar" style="html=1;shadow=0;dashed=0;shape=mxgraph.bootstrap.rrect;rSize=5;strokeColor=none;strokeWidth=1;fillColor=#DB2843;fontColor=#FFFFFF;whiteSpace=wrap;align=center;verticalAlign=middle;spacingLeft=0;fontStyle=0;fontSize=16;spacing=5;" vertex="1" parent="E8j2llxcRA6-mhXSuqtw-360">
          <mxGeometry x="190" y="330" width="67.11" height="30" as="geometry" />
        </mxCell>
        <mxCell id="E8j2llxcRA6-mhXSuqtw-363" value="Editar" style="html=1;shadow=0;dashed=0;shape=mxgraph.bootstrap.rrect;rSize=5;strokeColor=none;strokeWidth=1;fillColor=#0085FC;fontColor=#FFFFFF;whiteSpace=wrap;align=center;verticalAlign=middle;spacingLeft=0;fontStyle=0;fontSize=16;spacing=5;" vertex="1" parent="E8j2llxcRA6-mhXSuqtw-360">
          <mxGeometry x="110" y="330" width="70" height="30" as="geometry" />
        </mxCell>
        <mxCell id="E8j2llxcRA6-mhXSuqtw-311" value="" style="html=1;shadow=0;dashed=0;shape=mxgraph.bootstrap.rect;fillColor=#55F150;strokeColor=#82b366;whiteSpace=wrap;rounded=0;fontSize=12;align=center;" vertex="1" parent="1">
          <mxGeometry x="1590" y="180" width="1040" height="60" as="geometry" />
        </mxCell>
        <mxCell id="E8j2llxcRA6-mhXSuqtw-312" value="TuDroga" style="html=1;shadow=0;dashed=0;fillColor=none;strokeColor=none;fontSize=16;fontColor=#181819;align=left;spacing=2;spacingLeft=55;" vertex="1" parent="E8j2llxcRA6-mhXSuqtw-311">
          <mxGeometry width="181.74757281553397" height="60" as="geometry" />
        </mxCell>
        <mxCell id="E8j2llxcRA6-mhXSuqtw-313" value="" style="html=1;shadow=0;dashed=0;shape=mxgraph.bootstrap.logo;fillColor=#54407A;strokeColor=none;sketch=0;fontColor=#A63726;" vertex="1" parent="E8j2llxcRA6-mhXSuqtw-312">
          <mxGeometry width="40" height="40" relative="1" as="geometry">
            <mxPoint x="10" y="10" as="offset" />
          </mxGeometry>
        </mxCell>
        <mxCell id="E8j2llxcRA6-mhXSuqtw-314" value="&amp;nbsp;&amp;nbsp;&amp;nbsp;&amp;nbsp;&amp;nbsp;&amp;nbsp;&amp;nbsp;&amp;nbsp;&amp;nbsp;&amp;nbsp;&amp;nbsp;&amp;nbsp; &lt;i&gt;Buscar un artículo&lt;/i&gt;" style="html=1;shadow=0;dashed=0;shape=mxgraph.bootstrap.rrect;rSize=5;strokeColor=#CED4DA;html=1;whiteSpace=wrap;fillColor=#FFFFFF;fontColor=#7D868C;align=left;spacing=15;spacingLeft=80;fontSize=14;" vertex="1" parent="E8j2llxcRA6-mhXSuqtw-311">
          <mxGeometry x="171.6504854368932" y="10" width="555.3398058252427" height="40" as="geometry" />
        </mxCell>
        <mxCell id="E8j2llxcRA6-mhXSuqtw-315" value="Buscar" style="html=1;shadow=0;dashed=0;shape=mxgraph.bootstrap.rightButton;strokeColor=#CED4DA;gradientColor=inherit;fontColor=inherit;fillColor=#E9ECEF;rSize=5;perimeter=none;whiteSpace=wrap;resizeHeight=1;fontSize=14;align=left;spacing=15;" vertex="1" parent="E8j2llxcRA6-mhXSuqtw-314">
          <mxGeometry x="1" width="80" height="40" relative="1" as="geometry">
            <mxPoint x="-80" as="offset" />
          </mxGeometry>
        </mxCell>
        <mxCell id="E8j2llxcRA6-mhXSuqtw-316" value="Categoría" style="html=1;shadow=0;dashed=0;shape=mxgraph.bootstrap.rrect;rSize=5;strokeColor=none;strokeWidth=1;fillColor=#6C767D;fontColor=#ffffff;whiteSpace=wrap;align=right;verticalAlign=middle;fontStyle=0;fontSize=14;spacingRight=20;" vertex="1" parent="E8j2llxcRA6-mhXSuqtw-314">
          <mxGeometry width="90.91263089551326" height="40" as="geometry" />
        </mxCell>
        <mxCell id="E8j2llxcRA6-mhXSuqtw-317" value="" style="shape=triangle;direction=south;fillColor=#ffffff;strokeColor=none;perimeter=none;fontColor=#A63726;" vertex="1" parent="E8j2llxcRA6-mhXSuqtw-316">
          <mxGeometry x="1" y="0.5" width="10" height="5" relative="1" as="geometry">
            <mxPoint x="-17" y="-2.5" as="offset" />
          </mxGeometry>
        </mxCell>
        <mxCell id="E8j2llxcRA6-mhXSuqtw-318" value="Usuario" style="html=1;shadow=0;dashed=0;shape=mxgraph.bootstrap.rrect;rSize=5;strokeColor=none;strokeWidth=1;fillColor=none;fontColor=#A63726;whiteSpace=wrap;align=right;verticalAlign=middle;fontStyle=0;fontSize=14;spacingRight=20;" vertex="1" parent="E8j2llxcRA6-mhXSuqtw-311">
          <mxGeometry x="918.8349514563107" y="10" width="100.97087378640776" height="40" as="geometry" />
        </mxCell>
        <mxCell id="E8j2llxcRA6-mhXSuqtw-319" value="" style="shape=triangle;direction=south;fillColor=#ffffff;strokeColor=none;perimeter=none;fontColor=#A63726;" vertex="1" parent="E8j2llxcRA6-mhXSuqtw-318">
          <mxGeometry x="1" y="0.5" width="10" height="5" relative="1" as="geometry">
            <mxPoint x="-17" y="-2.5" as="offset" />
          </mxGeometry>
        </mxCell>
        <mxCell id="E8j2llxcRA6-mhXSuqtw-320" value="Carrito" style="html=1;shadow=0;dashed=0;shape=mxgraph.bootstrap.rrect;rSize=5;strokeColor=none;strokeWidth=1;fillColor=none;fontColor=#4D4D4D;whiteSpace=wrap;align=right;verticalAlign=middle;fontStyle=0;fontSize=14;spacingRight=20;" vertex="1" parent="E8j2llxcRA6-mhXSuqtw-311">
          <mxGeometry x="767.3786407766991" y="10" width="100.97087378640776" height="40" as="geometry" />
        </mxCell>
        <mxCell id="E8j2llxcRA6-mhXSuqtw-321" value="" style="shape=triangle;direction=south;fillColor=#ffffff;strokeColor=none;perimeter=none;fontColor=#A63726;" vertex="1" parent="E8j2llxcRA6-mhXSuqtw-320">
          <mxGeometry x="1" y="0.5" width="10" height="5" relative="1" as="geometry">
            <mxPoint x="-17" y="-2.5" as="offset" />
          </mxGeometry>
        </mxCell>
        <mxCell id="E8j2llxcRA6-mhXSuqtw-322" value="" style="html=1;shadow=0;dashed=0;shape=mxgraph.bootstrap.rrect;rSize=5;fillColor=#ffffff;strokeColor=#999999;fontColor=#A63726;" vertex="1" parent="1">
          <mxGeometry x="2490" y="230" width="130" height="70" as="geometry" />
        </mxCell>
        <mxCell id="E8j2llxcRA6-mhXSuqtw-323" value="Agregar Producto" style="fillColor=none;strokeColor=none;align=left;spacing=20;fontSize=14;fontColor=#A63726;" vertex="1" parent="E8j2llxcRA6-mhXSuqtw-322">
          <mxGeometry width="100" height="30" relative="1" as="geometry">
            <mxPoint x="-12" y="10" as="offset" />
          </mxGeometry>
        </mxCell>
        <mxCell id="E8j2llxcRA6-mhXSuqtw-334" value="Salir" style="fillColor=none;strokeColor=none;align=left;spacing=20;fontSize=14;fontColor=#A63726;" vertex="1" parent="E8j2llxcRA6-mhXSuqtw-322">
          <mxGeometry width="100" height="30" relative="1" as="geometry">
            <mxPoint y="40" as="offset" />
          </mxGeometry>
        </mxCell>
        <mxCell id="E8j2llxcRA6-mhXSuqtw-327" value="" style="html=1;shadow=0;dashed=0;shape=mxgraph.bootstrap.rrect;rSize=5;fillColor=#ffffff;strokeColor=#999999;fontColor=#A63726;" vertex="1" parent="1">
          <mxGeometry x="1750" y="230" width="120" height="80" as="geometry" />
        </mxCell>
        <mxCell id="E8j2llxcRA6-mhXSuqtw-328" value="Antialérgico" style="fillColor=none;strokeColor=none;align=left;spacing=20;fontSize=14;fontColor=#A63726;" vertex="1" parent="E8j2llxcRA6-mhXSuqtw-327">
          <mxGeometry width="170" height="30" relative="1" as="geometry">
            <mxPoint y="10" as="offset" />
          </mxGeometry>
        </mxCell>
        <mxCell id="E8j2llxcRA6-mhXSuqtw-329" value="Maternidad" style="fillColor=none;strokeColor=none;align=left;spacing=20;fontSize=14;fontColor=#A63726;" vertex="1" parent="E8j2llxcRA6-mhXSuqtw-327">
          <mxGeometry width="170" height="30" relative="1" as="geometry">
            <mxPoint y="40" as="offset" />
          </mxGeometry>
        </mxCell>
        <mxCell id="E8j2llxcRA6-mhXSuqtw-330" value="" style="endArrow=none;dashed=1;html=1;rounded=0;fontSize=9;fontColor=#A63726;" edge="1" parent="1" source="E8j2llxcRA6-mhXSuqtw-134" target="E8j2llxcRA6-mhXSuqtw-277">
          <mxGeometry width="50" height="50" relative="1" as="geometry">
            <mxPoint x="1310" y="520" as="sourcePoint" />
            <mxPoint x="1135.8823529411766" y="280" as="targetPoint" />
          </mxGeometry>
        </mxCell>
        <mxCell id="E8j2llxcRA6-mhXSuqtw-331" value="&lt;div style=&quot;font-size: 24px;&quot; align=&quot;left&quot;&gt;&lt;font style=&quot;font-size: 24px;&quot;&gt;Si es admin&lt;/font&gt;&lt;/div&gt;" style="text;html=1;strokeColor=none;fillColor=none;align=left;verticalAlign=middle;whiteSpace=wrap;rounded=0;fontSize=24;fontColor=#A63726;fontStyle=1" vertex="1" parent="1">
          <mxGeometry x="1590" y="30" width="190" height="30" as="geometry" />
        </mxCell>
        <mxCell id="E8j2llxcRA6-mhXSuqtw-364" value="" style="html=1;shadow=0;dashed=0;shape=mxgraph.bootstrap.rrect;rSize=5;fillColor=#ffffff;strokeColor=#999999;fontColor=#A63726;" vertex="1" parent="1">
          <mxGeometry x="2750" y="110" width="370" height="345" as="geometry" />
        </mxCell>
        <mxCell id="E8j2llxcRA6-mhXSuqtw-373" value="ventana modal" style="fillColor=none;strokeColor=none;align=left;spacing=20;fontSize=9;fontColor=#A63726;" vertex="1" parent="E8j2llxcRA6-mhXSuqtw-364">
          <mxGeometry width="100" height="20" relative="1" as="geometry">
            <mxPoint x="60" as="offset" />
          </mxGeometry>
        </mxCell>
        <mxCell id="E8j2llxcRA6-mhXSuqtw-374" value="Nombre" style="fillColor=none;strokeColor=none;align=left;fontSize=12;fontColor=#212529;" vertex="1" parent="E8j2llxcRA6-mhXSuqtw-364">
          <mxGeometry x="6.0079012345679015" y="70" width="45.67901234567901" height="20" as="geometry" />
        </mxCell>
        <mxCell id="E8j2llxcRA6-mhXSuqtw-375" value="" style="html=1;shadow=0;dashed=0;shape=mxgraph.bootstrap.rrect;rSize=5;fillColor=none;strokeColor=#999999;align=left;spacing=15;fontSize=12;fontColor=#6C767D;" vertex="1" parent="E8j2llxcRA6-mhXSuqtw-364">
          <mxGeometry x="71.44" y="70" width="292.56" height="20" as="geometry" />
        </mxCell>
        <mxCell id="E8j2llxcRA6-mhXSuqtw-380" value="Agregar nuevo producto" style="text;html=1;strokeColor=none;fillColor=none;align=center;verticalAlign=middle;whiteSpace=wrap;rounded=0;fontSize=24;fontColor=#4D4D4D;" vertex="1" parent="E8j2llxcRA6-mhXSuqtw-364">
          <mxGeometry x="30" y="20" width="310" height="30" as="geometry" />
        </mxCell>
        <mxCell id="E8j2llxcRA6-mhXSuqtw-381" value="" style="html=1;shadow=0;dashed=0;shape=mxgraph.bootstrap.rrect;rSize=5;fillColor=none;strokeColor=#999999;align=left;spacing=15;fontSize=12;fontColor=#6C767D;" vertex="1" parent="E8j2llxcRA6-mhXSuqtw-364">
          <mxGeometry x="71.44" y="100" width="292.56" height="20" as="geometry" />
        </mxCell>
        <mxCell id="E8j2llxcRA6-mhXSuqtw-382" value="Categoría" style="fillColor=none;strokeColor=none;align=left;fontSize=12;fontColor=#212529;" vertex="1" parent="E8j2llxcRA6-mhXSuqtw-364">
          <mxGeometry x="6.007901234567903" y="100" width="45.67901234567901" height="20" as="geometry" />
        </mxCell>
        <mxCell id="E8j2llxcRA6-mhXSuqtw-390" value="" style="html=1;shadow=0;dashed=0;shape=mxgraph.bootstrap.rrect;rSize=5;fillColor=none;strokeColor=#999999;align=left;spacing=15;fontSize=12;fontColor=#6C767D;" vertex="1" parent="E8j2llxcRA6-mhXSuqtw-364">
          <mxGeometry x="71.44" y="130" width="292.56" height="20" as="geometry" />
        </mxCell>
        <mxCell id="E8j2llxcRA6-mhXSuqtw-391" value="Precio" style="fillColor=none;strokeColor=none;align=left;fontSize=12;fontColor=#212529;" vertex="1" parent="E8j2llxcRA6-mhXSuqtw-364">
          <mxGeometry x="6.007901234567903" y="130" width="45.67901234567901" height="20" as="geometry" />
        </mxCell>
        <mxCell id="E8j2llxcRA6-mhXSuqtw-392" value="" style="html=1;shadow=0;dashed=0;shape=mxgraph.bootstrap.rrect;rSize=5;fillColor=none;strokeColor=#999999;align=left;spacing=15;fontSize=12;fontColor=#6C767D;" vertex="1" parent="E8j2llxcRA6-mhXSuqtw-364">
          <mxGeometry x="90" y="162.5" width="274" height="20" as="geometry" />
        </mxCell>
        <mxCell id="E8j2llxcRA6-mhXSuqtw-393" value="URL imagen" style="fillColor=none;strokeColor=none;align=left;fontSize=12;fontColor=#212529;" vertex="1" parent="E8j2llxcRA6-mhXSuqtw-364">
          <mxGeometry x="6.007901234567903" y="162.5" width="45.67901234567901" height="20" as="geometry" />
        </mxCell>
        <mxCell id="E8j2llxcRA6-mhXSuqtw-394" value="Guardar" style="html=1;shadow=0;dashed=0;shape=mxgraph.bootstrap.rrect;rSize=5;strokeColor=none;strokeWidth=1;fillColor=#33A64C;fontColor=#FFFFFF;whiteSpace=wrap;align=center;verticalAlign=middle;spacingLeft=0;fontStyle=0;fontSize=16;spacing=5;" vertex="1" parent="E8j2llxcRA6-mhXSuqtw-364">
          <mxGeometry x="71.44000000000005" y="300" width="90" height="40" as="geometry" />
        </mxCell>
        <mxCell id="E8j2llxcRA6-mhXSuqtw-395" value="Cancelar" style="html=1;shadow=0;dashed=0;shape=mxgraph.bootstrap.rrect;rSize=5;strokeColor=none;strokeWidth=1;fillColor=#6C767D;fontColor=#FFFFFF;whiteSpace=wrap;align=center;verticalAlign=middle;spacingLeft=0;fontStyle=0;fontSize=16;spacing=5;" vertex="1" parent="E8j2llxcRA6-mhXSuqtw-364">
          <mxGeometry x="200" y="300" width="100" height="40" as="geometry" />
        </mxCell>
        <mxCell id="E8j2llxcRA6-mhXSuqtw-396" value="" style="endArrow=none;dashed=1;html=1;rounded=0;fontSize=24;fontColor=#4D4D4D;" edge="1" parent="1" source="E8j2llxcRA6-mhXSuqtw-323" target="E8j2llxcRA6-mhXSuqtw-364">
          <mxGeometry width="50" height="50" relative="1" as="geometry">
            <mxPoint x="2690" y="260" as="sourcePoint" />
            <mxPoint x="2740" y="210" as="targetPoint" />
          </mxGeometry>
        </mxCell>
        <mxCell id="E8j2llxcRA6-mhXSuqtw-397" value="" style="html=1;shadow=0;dashed=0;shape=mxgraph.bootstrap.rrect;rSize=5;fillColor=#ffffff;strokeColor=#999999;fontColor=#A63726;" vertex="1" parent="1">
          <mxGeometry x="2750" y="620" width="370" height="345" as="geometry" />
        </mxCell>
        <mxCell id="E8j2llxcRA6-mhXSuqtw-398" value="ventana modal" style="fillColor=none;strokeColor=none;align=left;spacing=20;fontSize=9;fontColor=#A63726;" vertex="1" parent="E8j2llxcRA6-mhXSuqtw-397">
          <mxGeometry width="100" height="20" relative="1" as="geometry">
            <mxPoint x="60" as="offset" />
          </mxGeometry>
        </mxCell>
        <mxCell id="E8j2llxcRA6-mhXSuqtw-399" value="Nombre" style="fillColor=none;strokeColor=none;align=left;fontSize=12;fontColor=#212529;" vertex="1" parent="E8j2llxcRA6-mhXSuqtw-397">
          <mxGeometry x="6.0079012345679015" y="70" width="45.67901234567901" height="20" as="geometry" />
        </mxCell>
        <mxCell id="E8j2llxcRA6-mhXSuqtw-400" value="" style="html=1;shadow=0;dashed=0;shape=mxgraph.bootstrap.rrect;rSize=5;fillColor=none;strokeColor=#999999;align=left;spacing=15;fontSize=12;fontColor=#6C767D;" vertex="1" parent="E8j2llxcRA6-mhXSuqtw-397">
          <mxGeometry x="71.44" y="70" width="292.56" height="20" as="geometry" />
        </mxCell>
        <mxCell id="E8j2llxcRA6-mhXSuqtw-401" value="Editar producto" style="text;html=1;strokeColor=none;fillColor=none;align=center;verticalAlign=middle;whiteSpace=wrap;rounded=0;fontSize=24;fontColor=#4D4D4D;" vertex="1" parent="E8j2llxcRA6-mhXSuqtw-397">
          <mxGeometry x="30" y="20" width="310" height="30" as="geometry" />
        </mxCell>
        <mxCell id="E8j2llxcRA6-mhXSuqtw-402" value="" style="html=1;shadow=0;dashed=0;shape=mxgraph.bootstrap.rrect;rSize=5;fillColor=none;strokeColor=#999999;align=left;spacing=15;fontSize=12;fontColor=#6C767D;" vertex="1" parent="E8j2llxcRA6-mhXSuqtw-397">
          <mxGeometry x="71.44" y="100" width="292.56" height="20" as="geometry" />
        </mxCell>
        <mxCell id="E8j2llxcRA6-mhXSuqtw-403" value="Categoría" style="fillColor=none;strokeColor=none;align=left;fontSize=12;fontColor=#212529;" vertex="1" parent="E8j2llxcRA6-mhXSuqtw-397">
          <mxGeometry x="6.007901234567903" y="100" width="45.67901234567901" height="20" as="geometry" />
        </mxCell>
        <mxCell id="E8j2llxcRA6-mhXSuqtw-404" value="" style="html=1;shadow=0;dashed=0;shape=mxgraph.bootstrap.rrect;rSize=5;fillColor=none;strokeColor=#999999;align=left;spacing=15;fontSize=12;fontColor=#6C767D;" vertex="1" parent="E8j2llxcRA6-mhXSuqtw-397">
          <mxGeometry x="71.44" y="130" width="292.56" height="20" as="geometry" />
        </mxCell>
        <mxCell id="E8j2llxcRA6-mhXSuqtw-405" value="Precio" style="fillColor=none;strokeColor=none;align=left;fontSize=12;fontColor=#212529;" vertex="1" parent="E8j2llxcRA6-mhXSuqtw-397">
          <mxGeometry x="6.007901234567903" y="130" width="45.67901234567901" height="20" as="geometry" />
        </mxCell>
        <mxCell id="E8j2llxcRA6-mhXSuqtw-406" value="" style="html=1;shadow=0;dashed=0;shape=mxgraph.bootstrap.rrect;rSize=5;fillColor=none;strokeColor=#999999;align=left;spacing=15;fontSize=12;fontColor=#6C767D;" vertex="1" parent="E8j2llxcRA6-mhXSuqtw-397">
          <mxGeometry x="90" y="162.5" width="274" height="20" as="geometry" />
        </mxCell>
        <mxCell id="E8j2llxcRA6-mhXSuqtw-407" value="URL imagen" style="fillColor=none;strokeColor=none;align=left;fontSize=12;fontColor=#212529;" vertex="1" parent="E8j2llxcRA6-mhXSuqtw-397">
          <mxGeometry x="6.007901234567903" y="162.5" width="45.67901234567901" height="20" as="geometry" />
        </mxCell>
        <mxCell id="E8j2llxcRA6-mhXSuqtw-408" value="Guardar" style="html=1;shadow=0;dashed=0;shape=mxgraph.bootstrap.rrect;rSize=5;strokeColor=none;strokeWidth=1;fillColor=#33A64C;fontColor=#FFFFFF;whiteSpace=wrap;align=center;verticalAlign=middle;spacingLeft=0;fontStyle=0;fontSize=16;spacing=5;" vertex="1" parent="E8j2llxcRA6-mhXSuqtw-397">
          <mxGeometry x="71.44000000000005" y="300" width="90" height="40" as="geometry" />
        </mxCell>
        <mxCell id="E8j2llxcRA6-mhXSuqtw-409" value="Cancelar" style="html=1;shadow=0;dashed=0;shape=mxgraph.bootstrap.rrect;rSize=5;strokeColor=none;strokeWidth=1;fillColor=#6C767D;fontColor=#FFFFFF;whiteSpace=wrap;align=center;verticalAlign=middle;spacingLeft=0;fontStyle=0;fontSize=16;spacing=5;" vertex="1" parent="E8j2llxcRA6-mhXSuqtw-397">
          <mxGeometry x="200" y="300" width="100" height="40" as="geometry" />
        </mxCell>
        <mxCell id="E8j2llxcRA6-mhXSuqtw-411" value="" style="endArrow=none;dashed=1;html=1;rounded=0;fontSize=24;fontColor=#4D4D4D;" edge="1" parent="1" source="E8j2llxcRA6-mhXSuqtw-346" target="E8j2llxcRA6-mhXSuqtw-397">
          <mxGeometry width="50" height="50" relative="1" as="geometry">
            <mxPoint x="2690" y="660" as="sourcePoint" />
            <mxPoint x="2740" y="610" as="targetPoint" />
          </mxGeometry>
        </mxCell>
        <mxCell id="E8j2llxcRA6-mhXSuqtw-412" value="" style="html=1;shadow=0;dashed=0;shape=mxgraph.bootstrap.rrect;rSize=5;fillColor=#ffffff;strokeColor=#999999;fontColor=#A63726;" vertex="1" parent="1">
          <mxGeometry x="3250" y="420" width="300" height="160" as="geometry" />
        </mxCell>
        <mxCell id="E8j2llxcRA6-mhXSuqtw-413" value="ventana modal" style="fillColor=none;strokeColor=none;align=left;spacing=20;fontSize=9;fontColor=#A63726;" vertex="1" parent="E8j2llxcRA6-mhXSuqtw-412">
          <mxGeometry width="100" height="20" relative="1" as="geometry">
            <mxPoint x="60" as="offset" />
          </mxGeometry>
        </mxCell>
        <mxCell id="E8j2llxcRA6-mhXSuqtw-426" value="Eliminar producto" style="text;html=1;strokeColor=none;fillColor=none;align=center;verticalAlign=middle;whiteSpace=wrap;rounded=0;fontSize=24;fontColor=#4D4D4D;" vertex="1" parent="E8j2llxcRA6-mhXSuqtw-412">
          <mxGeometry x="-30" y="20" width="310" height="30" as="geometry" />
        </mxCell>
        <mxCell id="E8j2llxcRA6-mhXSuqtw-427" value="Cancelar" style="html=1;shadow=0;dashed=0;shape=mxgraph.bootstrap.rrect;rSize=5;strokeColor=none;strokeWidth=1;fillColor=#6C767D;fontColor=#FFFFFF;whiteSpace=wrap;align=center;verticalAlign=middle;spacingLeft=0;fontStyle=0;fontSize=16;spacing=5;" vertex="1" parent="E8j2llxcRA6-mhXSuqtw-412">
          <mxGeometry x="180" y="110" width="100" height="40" as="geometry" />
        </mxCell>
        <mxCell id="E8j2llxcRA6-mhXSuqtw-428" value="Eliminar" style="html=1;shadow=0;dashed=0;shape=mxgraph.bootstrap.rrect;rSize=5;strokeColor=none;strokeWidth=1;fillColor=#DB2843;fontColor=#FFFFFF;whiteSpace=wrap;align=center;verticalAlign=middle;spacingLeft=0;fontStyle=0;fontSize=16;spacing=5;" vertex="1" parent="E8j2llxcRA6-mhXSuqtw-412">
          <mxGeometry x="60" y="110" width="80" height="40" as="geometry" />
        </mxCell>
        <mxCell id="E8j2llxcRA6-mhXSuqtw-429" value="¿Está seguro de eliminar el producto?" style="text;html=1;strokeColor=none;fillColor=none;align=center;verticalAlign=middle;whiteSpace=wrap;rounded=0;fontSize=12;fontColor=#4D4D4D;" vertex="1" parent="E8j2llxcRA6-mhXSuqtw-412">
          <mxGeometry x="20" y="50" width="260" height="50" as="geometry" />
        </mxCell>
        <mxCell id="E8j2llxcRA6-mhXSuqtw-430" value="" style="endArrow=none;dashed=1;html=1;rounded=0;fontSize=12;fontColor=#4D4D4D;" edge="1" parent="1" source="E8j2llxcRA6-mhXSuqtw-345" target="E8j2llxcRA6-mhXSuqtw-412">
          <mxGeometry width="50" height="50" relative="1" as="geometry">
            <mxPoint x="2840" y="580" as="sourcePoint" />
            <mxPoint x="2890" y="530" as="targetPoint" />
          </mxGeometry>
        </mxCell>
      </root>
    </mxGraphModel>
  </diagram>
</mxfile>
