<?xml version="1.0" encoding="UTF-8" standalone="no"?>
<!-- Created with Inkscape (http://www.inkscape.org/) -->

<svg
   width="86mm"
   height="50mm"
   viewBox="0 0 86 50.000002"
   version="1.1"
   id="svg5"
   inkscape:version="1.1.1 (3bf5ae0d25, 2021-09-20)"
   sodipodi:docname="logo.svg"
   xmlns:inkscape="http://www.inkscape.org/namespaces/inkscape"
   xmlns:sodipodi="http://sodipodi.sourceforge.net/DTD/sodipodi-0.dtd"
   xmlns="http://www.w3.org/2000/svg"
   xmlns:svg="http://www.w3.org/2000/svg">
  <sodipodi:namedview
     id="namedview7"
     pagecolor="#ffffff"
     bordercolor="#666666"
     borderopacity="1.0"
     inkscape:pageshadow="2"
     inkscape:pageopacity="0.0"
     inkscape:pagecheckerboard="0"
     inkscape:document-units="mm"
     showgrid="false"
     units="mm"
     inkscape:lockguides="false"
     inkscape:zoom="1.421118"
     inkscape:cx="204.76836"
     inkscape:cy="159.38156"
     inkscape:window-width="1366"
     inkscape:window-height="715"
     inkscape:window-x="-8"
     inkscape:window-y="-8"
     inkscape:window-maximized="1"
     inkscape:current-layer="layer1" />
  <defs
     id="defs2">
    <rect
       x="235.35098"
       y="107.47529"
       width="212.9603"
       height="157.72993"
       id="rect4161" />
  </defs>
  <g
     inkscape:label="Capa 1"
     inkscape:groupmode="layer"
     id="layer1">
    <rect
       style="fill:none;fill-rule:evenodd;stroke:#000000;stroke-width:1.05833;stroke-linecap:round;stroke-linejoin:round;stroke-miterlimit:4;stroke-dasharray:none;paint-order:stroke fill markers"
       id="rect868"
       width="83.421188"
       height="45.890953"
       x="1.4159211"
       y="1.7463148"
       ry="9.7420216"
       inkscape:export-filename="E:\Proyectos\Desarrollo Web MisionTic 2022\Proyecto\drogueria\Frontend\src\assets\logo.png"
       inkscape:export-xdpi="30.296522"
       inkscape:export-ydpi="30.296522" />
    <g
       id="g40063"
       transform="translate(-32.02291,-20.134671)"
       inkscape:export-filename="E:\Proyectos\Desarrollo Web MisionTic 2022\Proyecto\drogueria\Frontend\src\assets\logo.png"
       inkscape:export-xdpi="30.296522"
       inkscape:export-ydpi="30.296522">
      <rect
         style="fill:none;fill-rule:evenodd;stroke:#000000;stroke-width:1.05833;stroke-linecap:round;stroke-linejoin:round;stroke-miterlimit:4;stroke-dasharray:none;paint-order:stroke fill markers"
         id="rect1009"
         width="19.089096"
         height="34.360371"
         x="40.416222"
         y="27.646276"
         ry="9.544548" />
      <path
         id="rect1270"
         style="fill:#000000;fill-rule:evenodd;stroke:#000000;stroke-width:3.99999;stroke-linecap:round;stroke-linejoin:round;stroke-miterlimit:4;stroke-dasharray:none;paint-order:stroke fill markers"
         d="m 152.75391,167.68164 v 30.59961 c 0,19.98493 16.08928,36.07422 36.07421,36.07422 19.98494,0 36.07422,-16.08929 36.07422,-36.07422 v -30.59961 z"
         transform="scale(0.26458333)" />
    </g>
    <text
       xml:space="preserve"
       transform="matrix(0.26458333,0,0,0.26458333,-32.767629,-17.61746)"
       id="text4159"
       style="font-style:normal;font-variant:normal;font-weight:bold;font-stretch:normal;font-size:192px;line-height:0.7;font-family:Corbel;-inkscape-font-specification:'Corbel Bold';letter-spacing:-9px;word-spacing:0px;white-space:pre;shape-inside:url(#rect4161);fill:#000000;fill-opacity:1;stroke:none"
       inkscape:export-filename="E:\Proyectos\Desarrollo Web MisionTic 2022\Proyecto\drogueria\Frontend\src\assets\logo.png"
       inkscape:export-xdpi="30.296522"
       inkscape:export-ydpi="30.296522"><tspan
         x="235.35156"
         y="221.45586"
         id="tspan42223">tD</tspan></text>
  </g>
</svg>
